(kicad_sch (version 20211123) (generator eeschema)

  (uuid e63e39d7-6ac0-4ffd-8aa3-1841a4541b55)

  (paper "A4")

  (title_block
    (title "Boost Inverter")
    (date "2022-06-03")
    (rev "1.1")
    (company "SUF")
  )

  (lib_symbols
    (symbol "Connector_Generic:Conn_01x03" (pin_names (offset 1.016) hide) (in_bom yes) (on_board yes)
      (property "Reference" "J" (id 0) (at 0 5.08 0)
        (effects (font (size 1.27 1.27)))
      )
      (property "Value" "Conn_01x03" (id 1) (at 0 -5.08 0)
        (effects (font (size 1.27 1.27)))
      )
      (property "Footprint" "" (id 2) (at 0 0 0)
        (effects (font (size 1.27 1.27)) hide)
      )
      (property "Datasheet" "~" (id 3) (at 0 0 0)
        (effects (font (size 1.27 1.27)) hide)
      )
      (property "ki_keywords" "connector" (id 4) (at 0 0 0)
        (effects (font (size 1.27 1.27)) hide)
      )
      (property "ki_description" "Generic connector, single row, 01x03, script generated (kicad-library-utils/schlib/autogen/connector/)" (id 5) (at 0 0 0)
        (effects (font (size 1.27 1.27)) hide)
      )
      (property "ki_fp_filters" "Connector*:*_1x??_*" (id 6) (at 0 0 0)
        (effects (font (size 1.27 1.27)) hide)
      )
      (symbol "Conn_01x03_1_1"
        (rectangle (start -1.27 -2.413) (end 0 -2.667)
          (stroke (width 0.1524) (type default) (color 0 0 0 0))
          (fill (type none))
        )
        (rectangle (start -1.27 0.127) (end 0 -0.127)
          (stroke (width 0.1524) (type default) (color 0 0 0 0))
          (fill (type none))
        )
        (rectangle (start -1.27 2.667) (end 0 2.413)
          (stroke (width 0.1524) (type default) (color 0 0 0 0))
          (fill (type none))
        )
        (rectangle (start -1.27 3.81) (end 1.27 -3.81)
          (stroke (width 0.254) (type default) (color 0 0 0 0))
          (fill (type background))
        )
        (pin passive line (at -5.08 2.54 0) (length 3.81)
          (name "Pin_1" (effects (font (size 1.27 1.27))))
          (number "1" (effects (font (size 1.27 1.27))))
        )
        (pin passive line (at -5.08 0 0) (length 3.81)
          (name "Pin_2" (effects (font (size 1.27 1.27))))
          (number "2" (effects (font (size 1.27 1.27))))
        )
        (pin passive line (at -5.08 -2.54 0) (length 3.81)
          (name "Pin_3" (effects (font (size 1.27 1.27))))
          (number "3" (effects (font (size 1.27 1.27))))
        )
      )
    )
    (symbol "Device:C_Polarized_Small" (pin_numbers hide) (pin_names (offset 0.254) hide) (in_bom yes) (on_board yes)
      (property "Reference" "C" (id 0) (at 0.254 1.778 0)
        (effects (font (size 1.27 1.27)) (justify left))
      )
      (property "Value" "C_Polarized_Small" (id 1) (at 0.254 -2.032 0)
        (effects (font (size 1.27 1.27)) (justify left))
      )
      (property "Footprint" "" (id 2) (at 0 0 0)
        (effects (font (size 1.27 1.27)) hide)
      )
      (property "Datasheet" "~" (id 3) (at 0 0 0)
        (effects (font (size 1.27 1.27)) hide)
      )
      (property "ki_keywords" "cap capacitor" (id 4) (at 0 0 0)
        (effects (font (size 1.27 1.27)) hide)
      )
      (property "ki_description" "Polarized capacitor, small symbol" (id 5) (at 0 0 0)
        (effects (font (size 1.27 1.27)) hide)
      )
      (property "ki_fp_filters" "CP_*" (id 6) (at 0 0 0)
        (effects (font (size 1.27 1.27)) hide)
      )
      (symbol "C_Polarized_Small_0_1"
        (rectangle (start -1.524 -0.3048) (end 1.524 -0.6858)
          (stroke (width 0) (type default) (color 0 0 0 0))
          (fill (type outline))
        )
        (rectangle (start -1.524 0.6858) (end 1.524 0.3048)
          (stroke (width 0) (type default) (color 0 0 0 0))
          (fill (type none))
        )
        (polyline
          (pts
            (xy -1.27 1.524)
            (xy -0.762 1.524)
          )
          (stroke (width 0) (type default) (color 0 0 0 0))
          (fill (type none))
        )
        (polyline
          (pts
            (xy -1.016 1.27)
            (xy -1.016 1.778)
          )
          (stroke (width 0) (type default) (color 0 0 0 0))
          (fill (type none))
        )
      )
      (symbol "C_Polarized_Small_1_1"
        (pin passive line (at 0 2.54 270) (length 1.8542)
          (name "~" (effects (font (size 1.27 1.27))))
          (number "1" (effects (font (size 1.27 1.27))))
        )
        (pin passive line (at 0 -2.54 90) (length 1.8542)
          (name "~" (effects (font (size 1.27 1.27))))
          (number "2" (effects (font (size 1.27 1.27))))
        )
      )
    )
    (symbol "Device:C_Small" (pin_numbers hide) (pin_names (offset 0.254) hide) (in_bom yes) (on_board yes)
      (property "Reference" "C" (id 0) (at 0.254 1.778 0)
        (effects (font (size 1.27 1.27)) (justify left))
      )
      (property "Value" "C_Small" (id 1) (at 0.254 -2.032 0)
        (effects (font (size 1.27 1.27)) (justify left))
      )
      (property "Footprint" "" (id 2) (at 0 0 0)
        (effects (font (size 1.27 1.27)) hide)
      )
      (property "Datasheet" "~" (id 3) (at 0 0 0)
        (effects (font (size 1.27 1.27)) hide)
      )
      (property "ki_keywords" "capacitor cap" (id 4) (at 0 0 0)
        (effects (font (size 1.27 1.27)) hide)
      )
      (property "ki_description" "Unpolarized capacitor, small symbol" (id 5) (at 0 0 0)
        (effects (font (size 1.27 1.27)) hide)
      )
      (property "ki_fp_filters" "C_*" (id 6) (at 0 0 0)
        (effects (font (size 1.27 1.27)) hide)
      )
      (symbol "C_Small_0_1"
        (polyline
          (pts
            (xy -1.524 -0.508)
            (xy 1.524 -0.508)
          )
          (stroke (width 0.3302) (type default) (color 0 0 0 0))
          (fill (type none))
        )
        (polyline
          (pts
            (xy -1.524 0.508)
            (xy 1.524 0.508)
          )
          (stroke (width 0.3048) (type default) (color 0 0 0 0))
          (fill (type none))
        )
      )
      (symbol "C_Small_1_1"
        (pin passive line (at 0 2.54 270) (length 2.032)
          (name "~" (effects (font (size 1.27 1.27))))
          (number "1" (effects (font (size 1.27 1.27))))
        )
        (pin passive line (at 0 -2.54 90) (length 2.032)
          (name "~" (effects (font (size 1.27 1.27))))
          (number "2" (effects (font (size 1.27 1.27))))
        )
      )
    )
    (symbol "Device:D_Schottky_Small" (pin_numbers hide) (pin_names (offset 0.254) hide) (in_bom yes) (on_board yes)
      (property "Reference" "D" (id 0) (at -1.27 2.032 0)
        (effects (font (size 1.27 1.27)) (justify left))
      )
      (property "Value" "D_Schottky_Small" (id 1) (at -7.112 -2.032 0)
        (effects (font (size 1.27 1.27)) (justify left))
      )
      (property "Footprint" "" (id 2) (at 0 0 90)
        (effects (font (size 1.27 1.27)) hide)
      )
      (property "Datasheet" "~" (id 3) (at 0 0 90)
        (effects (font (size 1.27 1.27)) hide)
      )
      (property "ki_keywords" "diode Schottky" (id 4) (at 0 0 0)
        (effects (font (size 1.27 1.27)) hide)
      )
      (property "ki_description" "Schottky diode, small symbol" (id 5) (at 0 0 0)
        (effects (font (size 1.27 1.27)) hide)
      )
      (property "ki_fp_filters" "TO-???* *_Diode_* *SingleDiode* D_*" (id 6) (at 0 0 0)
        (effects (font (size 1.27 1.27)) hide)
      )
      (symbol "D_Schottky_Small_0_1"
        (polyline
          (pts
            (xy -0.762 0)
            (xy 0.762 0)
          )
          (stroke (width 0) (type default) (color 0 0 0 0))
          (fill (type none))
        )
        (polyline
          (pts
            (xy 0.762 -1.016)
            (xy -0.762 0)
            (xy 0.762 1.016)
            (xy 0.762 -1.016)
          )
          (stroke (width 0.254) (type default) (color 0 0 0 0))
          (fill (type none))
        )
        (polyline
          (pts
            (xy -1.27 0.762)
            (xy -1.27 1.016)
            (xy -0.762 1.016)
            (xy -0.762 -1.016)
            (xy -0.254 -1.016)
            (xy -0.254 -0.762)
          )
          (stroke (width 0.254) (type default) (color 0 0 0 0))
          (fill (type none))
        )
      )
      (symbol "D_Schottky_Small_1_1"
        (pin passive line (at -2.54 0 0) (length 1.778)
          (name "K" (effects (font (size 1.27 1.27))))
          (number "1" (effects (font (size 1.27 1.27))))
        )
        (pin passive line (at 2.54 0 180) (length 1.778)
          (name "A" (effects (font (size 1.27 1.27))))
          (number "2" (effects (font (size 1.27 1.27))))
        )
      )
    )
    (symbol "Device:L_Iron_Small" (pin_numbers hide) (pin_names (offset 0.254) hide) (in_bom yes) (on_board yes)
      (property "Reference" "L" (id 0) (at 1.27 1.016 0)
        (effects (font (size 1.27 1.27)) (justify left))
      )
      (property "Value" "L_Iron_Small" (id 1) (at 1.27 -1.27 0)
        (effects (font (size 1.27 1.27)) (justify left))
      )
      (property "Footprint" "" (id 2) (at 0 0 0)
        (effects (font (size 1.27 1.27)) hide)
      )
      (property "Datasheet" "~" (id 3) (at 0 0 0)
        (effects (font (size 1.27 1.27)) hide)
      )
      (property "ki_keywords" "inductor choke coil reactor magnetic" (id 4) (at 0 0 0)
        (effects (font (size 1.27 1.27)) hide)
      )
      (property "ki_description" "Inductor with iron core, small symbol" (id 5) (at 0 0 0)
        (effects (font (size 1.27 1.27)) hide)
      )
      (property "ki_fp_filters" "Choke_* *Coil* Inductor_* L_*" (id 6) (at 0 0 0)
        (effects (font (size 1.27 1.27)) hide)
      )
      (symbol "L_Iron_Small_0_1"
        (arc (start 0 -2.032) (mid 0.508 -1.524) (end 0 -1.016)
          (stroke (width 0) (type default) (color 0 0 0 0))
          (fill (type none))
        )
        (arc (start 0 -1.016) (mid 0.508 -0.508) (end 0 0)
          (stroke (width 0) (type default) (color 0 0 0 0))
          (fill (type none))
        )
        (polyline
          (pts
            (xy 0.762 2.032)
            (xy 0.762 -2.032)
          )
          (stroke (width 0) (type default) (color 0 0 0 0))
          (fill (type none))
        )
        (polyline
          (pts
            (xy 1.016 -2.032)
            (xy 1.016 2.032)
          )
          (stroke (width 0) (type default) (color 0 0 0 0))
          (fill (type none))
        )
        (arc (start 0 0) (mid 0.508 0.508) (end 0 1.016)
          (stroke (width 0) (type default) (color 0 0 0 0))
          (fill (type none))
        )
        (arc (start 0 1.016) (mid 0.508 1.524) (end 0 2.032)
          (stroke (width 0) (type default) (color 0 0 0 0))
          (fill (type none))
        )
      )
      (symbol "L_Iron_Small_1_1"
        (pin passive line (at 0 2.54 270) (length 0.508)
          (name "~" (effects (font (size 1.27 1.27))))
          (number "1" (effects (font (size 1.27 1.27))))
        )
        (pin passive line (at 0 -2.54 90) (length 0.508)
          (name "~" (effects (font (size 1.27 1.27))))
          (number "2" (effects (font (size 1.27 1.27))))
        )
      )
    )
    (symbol "Device:Q_PNP_BCEC" (pin_names (offset 0) hide) (in_bom yes) (on_board yes)
      (property "Reference" "Q" (id 0) (at 5.08 1.27 0)
        (effects (font (size 1.27 1.27)) (justify left))
      )
      (property "Value" "Q_PNP_BCEC" (id 1) (at 5.08 -1.27 0)
        (effects (font (size 1.27 1.27)) (justify left))
      )
      (property "Footprint" "" (id 2) (at 5.08 2.54 0)
        (effects (font (size 1.27 1.27)) hide)
      )
      (property "Datasheet" "~" (id 3) (at 0 0 0)
        (effects (font (size 1.27 1.27)) hide)
      )
      (property "ki_keywords" "transistor PNP" (id 4) (at 0 0 0)
        (effects (font (size 1.27 1.27)) hide)
      )
      (property "ki_description" "PNP transistor, base/collector/emitter, collector connected to mounting plane" (id 5) (at 0 0 0)
        (effects (font (size 1.27 1.27)) hide)
      )
      (symbol "Q_PNP_BCEC_0_1"
        (polyline
          (pts
            (xy 0.635 0.635)
            (xy 2.54 2.54)
          )
          (stroke (width 0) (type default) (color 0 0 0 0))
          (fill (type none))
        )
        (polyline
          (pts
            (xy 5.08 2.54)
            (xy 2.54 2.54)
          )
          (stroke (width 0) (type default) (color 0 0 0 0))
          (fill (type none))
        )
        (polyline
          (pts
            (xy 0.635 -0.635)
            (xy 2.54 -2.54)
            (xy 2.54 -2.54)
          )
          (stroke (width 0) (type default) (color 0 0 0 0))
          (fill (type none))
        )
        (polyline
          (pts
            (xy 0.635 1.905)
            (xy 0.635 -1.905)
            (xy 0.635 -1.905)
          )
          (stroke (width 0.508) (type default) (color 0 0 0 0))
          (fill (type none))
        )
        (polyline
          (pts
            (xy 2.286 -1.778)
            (xy 1.778 -2.286)
            (xy 1.27 -1.27)
            (xy 2.286 -1.778)
            (xy 2.286 -1.778)
          )
          (stroke (width 0) (type default) (color 0 0 0 0))
          (fill (type outline))
        )
        (circle (center 1.27 0) (radius 2.8194)
          (stroke (width 0.254) (type default) (color 0 0 0 0))
          (fill (type none))
        )
      )
      (symbol "Q_PNP_BCEC_1_1"
        (pin input line (at -5.08 0 0) (length 5.715)
          (name "B" (effects (font (size 1.27 1.27))))
          (number "1" (effects (font (size 1.27 1.27))))
        )
        (pin passive line (at 2.54 5.08 270) (length 2.54)
          (name "C" (effects (font (size 1.27 1.27))))
          (number "2" (effects (font (size 1.27 1.27))))
        )
        (pin passive line (at 2.54 -5.08 90) (length 2.54)
          (name "E" (effects (font (size 1.27 1.27))))
          (number "3" (effects (font (size 1.27 1.27))))
        )
        (pin passive line (at 5.08 5.08 270) (length 2.54)
          (name "C" (effects (font (size 1.27 1.27))))
          (number "4" (effects (font (size 1.27 1.27))))
        )
      )
    )
    (symbol "Device:R_Small" (pin_numbers hide) (pin_names (offset 0.254) hide) (in_bom yes) (on_board yes)
      (property "Reference" "R" (id 0) (at 0.762 0.508 0)
        (effects (font (size 1.27 1.27)) (justify left))
      )
      (property "Value" "R_Small" (id 1) (at 0.762 -1.016 0)
        (effects (font (size 1.27 1.27)) (justify left))
      )
      (property "Footprint" "" (id 2) (at 0 0 0)
        (effects (font (size 1.27 1.27)) hide)
      )
      (property "Datasheet" "~" (id 3) (at 0 0 0)
        (effects (font (size 1.27 1.27)) hide)
      )
      (property "ki_keywords" "R resistor" (id 4) (at 0 0 0)
        (effects (font (size 1.27 1.27)) hide)
      )
      (property "ki_description" "Resistor, small symbol" (id 5) (at 0 0 0)
        (effects (font (size 1.27 1.27)) hide)
      )
      (property "ki_fp_filters" "R_*" (id 6) (at 0 0 0)
        (effects (font (size 1.27 1.27)) hide)
      )
      (symbol "R_Small_0_1"
        (rectangle (start -0.762 1.778) (end 0.762 -1.778)
          (stroke (width 0.2032) (type default) (color 0 0 0 0))
          (fill (type none))
        )
      )
      (symbol "R_Small_1_1"
        (pin passive line (at 0 2.54 270) (length 0.762)
          (name "~" (effects (font (size 1.27 1.27))))
          (number "1" (effects (font (size 1.27 1.27))))
        )
        (pin passive line (at 0 -2.54 90) (length 0.762)
          (name "~" (effects (font (size 1.27 1.27))))
          (number "2" (effects (font (size 1.27 1.27))))
        )
      )
    )
    (symbol "Regulator_Switching:MC34063AD" (in_bom yes) (on_board yes)
      (property "Reference" "U" (id 0) (at -7.62 8.89 0)
        (effects (font (size 1.27 1.27)) (justify left))
      )
      (property "Value" "MC34063AD" (id 1) (at 0 8.89 0)
        (effects (font (size 1.27 1.27)) (justify left))
      )
      (property "Footprint" "Package_SO:SOIC-8_3.9x4.9mm_P1.27mm" (id 2) (at 1.27 -11.43 0)
        (effects (font (size 1.27 1.27)) (justify left) hide)
      )
      (property "Datasheet" "http://www.onsemi.com/pub_link/Collateral/MC34063A-D.PDF" (id 3) (at 12.7 -2.54 0)
        (effects (font (size 1.27 1.27)) hide)
      )
      (property "ki_keywords" "smps buck boost inverting" (id 4) (at 0 0 0)
        (effects (font (size 1.27 1.27)) hide)
      )
      (property "ki_description" "1.5A, step-up/down/inverting switching regulator, 3-40V Vin, 100kHz, SO-8" (id 5) (at 0 0 0)
        (effects (font (size 1.27 1.27)) hide)
      )
      (property "ki_fp_filters" "SOIC*3.9x4.9mm*P1.27mm*" (id 6) (at 0 0 0)
        (effects (font (size 1.27 1.27)) hide)
      )
      (symbol "MC34063AD_0_1"
        (rectangle (start -7.62 7.62) (end 7.62 -10.16)
          (stroke (width 0.254) (type default) (color 0 0 0 0))
          (fill (type background))
        )
      )
      (symbol "MC34063AD_1_1"
        (pin open_collector line (at 10.16 0 180) (length 2.54)
          (name "SwC" (effects (font (size 1.27 1.27))))
          (number "1" (effects (font (size 1.27 1.27))))
        )
        (pin open_emitter line (at 10.16 -5.08 180) (length 2.54)
          (name "SwE" (effects (font (size 1.27 1.27))))
          (number "2" (effects (font (size 1.27 1.27))))
        )
        (pin passive line (at -10.16 -5.08 0) (length 2.54)
          (name "TC" (effects (font (size 1.27 1.27))))
          (number "3" (effects (font (size 1.27 1.27))))
        )
        (pin power_in line (at 0 -12.7 90) (length 2.54)
          (name "GND" (effects (font (size 1.27 1.27))))
          (number "4" (effects (font (size 1.27 1.27))))
        )
        (pin input line (at 10.16 -7.62 180) (length 2.54)
          (name "Vfb" (effects (font (size 1.27 1.27))))
          (number "5" (effects (font (size 1.27 1.27))))
        )
        (pin power_in line (at -10.16 5.08 0) (length 2.54)
          (name "Vin" (effects (font (size 1.27 1.27))))
          (number "6" (effects (font (size 1.27 1.27))))
        )
        (pin input line (at 10.16 5.08 180) (length 2.54)
          (name "Ipk" (effects (font (size 1.27 1.27))))
          (number "7" (effects (font (size 1.27 1.27))))
        )
        (pin open_collector line (at 10.16 2.54 180) (length 2.54)
          (name "DC" (effects (font (size 1.27 1.27))))
          (number "8" (effects (font (size 1.27 1.27))))
        )
      )
    )
    (symbol "power:GND" (power) (pin_names (offset 0)) (in_bom yes) (on_board yes)
      (property "Reference" "#PWR" (id 0) (at 0 -6.35 0)
        (effects (font (size 1.27 1.27)) hide)
      )
      (property "Value" "GND" (id 1) (at 0 -3.81 0)
        (effects (font (size 1.27 1.27)))
      )
      (property "Footprint" "" (id 2) (at 0 0 0)
        (effects (font (size 1.27 1.27)) hide)
      )
      (property "Datasheet" "" (id 3) (at 0 0 0)
        (effects (font (size 1.27 1.27)) hide)
      )
      (property "ki_keywords" "power-flag" (id 4) (at 0 0 0)
        (effects (font (size 1.27 1.27)) hide)
      )
      (property "ki_description" "Power symbol creates a global label with name \"GND\" , ground" (id 5) (at 0 0 0)
        (effects (font (size 1.27 1.27)) hide)
      )
      (symbol "GND_0_1"
        (polyline
          (pts
            (xy 0 0)
            (xy 0 -1.27)
            (xy 1.27 -1.27)
            (xy 0 -2.54)
            (xy -1.27 -1.27)
            (xy 0 -1.27)
          )
          (stroke (width 0) (type default) (color 0 0 0 0))
          (fill (type none))
        )
      )
      (symbol "GND_1_1"
        (pin power_in line (at 0 0 270) (length 0) hide
          (name "GND" (effects (font (size 1.27 1.27))))
          (number "1" (effects (font (size 1.27 1.27))))
        )
      )
    )
    (symbol "power:PWR_FLAG" (power) (pin_numbers hide) (pin_names (offset 0) hide) (in_bom yes) (on_board yes)
      (property "Reference" "#FLG" (id 0) (at 0 1.905 0)
        (effects (font (size 1.27 1.27)) hide)
      )
      (property "Value" "PWR_FLAG" (id 1) (at 0 3.81 0)
        (effects (font (size 1.27 1.27)))
      )
      (property "Footprint" "" (id 2) (at 0 0 0)
        (effects (font (size 1.27 1.27)) hide)
      )
      (property "Datasheet" "~" (id 3) (at 0 0 0)
        (effects (font (size 1.27 1.27)) hide)
      )
      (property "ki_keywords" "power-flag" (id 4) (at 0 0 0)
        (effects (font (size 1.27 1.27)) hide)
      )
      (property "ki_description" "Special symbol for telling ERC where power comes from" (id 5) (at 0 0 0)
        (effects (font (size 1.27 1.27)) hide)
      )
      (symbol "PWR_FLAG_0_0"
        (pin power_out line (at 0 0 90) (length 0)
          (name "pwr" (effects (font (size 1.27 1.27))))
          (number "1" (effects (font (size 1.27 1.27))))
        )
      )
      (symbol "PWR_FLAG_0_1"
        (polyline
          (pts
            (xy 0 0)
            (xy 0 1.27)
            (xy -1.016 1.905)
            (xy 0 2.54)
            (xy 1.016 1.905)
            (xy 0 1.27)
          )
          (stroke (width 0) (type default) (color 0 0 0 0))
          (fill (type none))
        )
      )
    )
    (symbol "power:VCC" (power) (pin_names (offset 0)) (in_bom yes) (on_board yes)
      (property "Reference" "#PWR" (id 0) (at 0 -3.81 0)
        (effects (font (size 1.27 1.27)) hide)
      )
      (property "Value" "VCC" (id 1) (at 0 3.81 0)
        (effects (font (size 1.27 1.27)))
      )
      (property "Footprint" "" (id 2) (at 0 0 0)
        (effects (font (size 1.27 1.27)) hide)
      )
      (property "Datasheet" "" (id 3) (at 0 0 0)
        (effects (font (size 1.27 1.27)) hide)
      )
      (property "ki_keywords" "power-flag" (id 4) (at 0 0 0)
        (effects (font (size 1.27 1.27)) hide)
      )
      (property "ki_description" "Power symbol creates a global label with name \"VCC\"" (id 5) (at 0 0 0)
        (effects (font (size 1.27 1.27)) hide)
      )
      (symbol "VCC_0_1"
        (polyline
          (pts
            (xy -0.762 1.27)
            (xy 0 2.54)
          )
          (stroke (width 0) (type default) (color 0 0 0 0))
          (fill (type none))
        )
        (polyline
          (pts
            (xy 0 0)
            (xy 0 2.54)
          )
          (stroke (width 0) (type default) (color 0 0 0 0))
          (fill (type none))
        )
        (polyline
          (pts
            (xy 0 2.54)
            (xy 0.762 1.27)
          )
          (stroke (width 0) (type default) (color 0 0 0 0))
          (fill (type none))
        )
      )
      (symbol "VCC_1_1"
        (pin power_in line (at 0 0 90) (length 0) hide
          (name "VCC" (effects (font (size 1.27 1.27))))
          (number "1" (effects (font (size 1.27 1.27))))
        )
      )
    )
    (symbol "power:VEE" (power) (pin_names (offset 0)) (in_bom yes) (on_board yes)
      (property "Reference" "#PWR" (id 0) (at 0 -3.81 0)
        (effects (font (size 1.27 1.27)) hide)
      )
      (property "Value" "VEE" (id 1) (at 0 3.81 0)
        (effects (font (size 1.27 1.27)))
      )
      (property "Footprint" "" (id 2) (at 0 0 0)
        (effects (font (size 1.27 1.27)) hide)
      )
      (property "Datasheet" "" (id 3) (at 0 0 0)
        (effects (font (size 1.27 1.27)) hide)
      )
      (property "ki_keywords" "power-flag" (id 4) (at 0 0 0)
        (effects (font (size 1.27 1.27)) hide)
      )
      (property "ki_description" "Power symbol creates a global label with name \"VEE\"" (id 5) (at 0 0 0)
        (effects (font (size 1.27 1.27)) hide)
      )
      (symbol "VEE_0_1"
        (polyline
          (pts
            (xy 0 0)
            (xy 0 2.54)
          )
          (stroke (width 0) (type default) (color 0 0 0 0))
          (fill (type none))
        )
        (polyline
          (pts
            (xy 0.762 1.27)
            (xy -0.762 1.27)
            (xy 0 2.54)
            (xy 0.762 1.27)
          )
          (stroke (width 0) (type default) (color 0 0 0 0))
          (fill (type outline))
        )
      )
      (symbol "VEE_1_1"
        (pin power_in line (at 0 0 90) (length 0) hide
          (name "VEE" (effects (font (size 1.27 1.27))))
          (number "1" (effects (font (size 1.27 1.27))))
        )
      )
    )
  )

  (junction (at 35.56 38.1) (diameter 0) (color 0 0 0 0)
    (uuid 07dc09da-f885-4def-bc3e-5e9419ec024a)
  )
  (junction (at 94.615 57.15) (diameter 0) (color 0 0 0 0)
    (uuid 13955929-2ebb-4421-b3a5-fe26cb4bbe58)
  )
  (junction (at 35.56 31.75) (diameter 0) (color 0 0 0 0)
    (uuid 18879c02-efde-4ac3-834f-3c399923577c)
  )
  (junction (at 94.615 48.26) (diameter 0) (color 0 0 0 0)
    (uuid 19a868e6-ec85-4358-b213-2bfd73a883ce)
  )
  (junction (at 63.5 48.26) (diameter 0) (color 0 0 0 0)
    (uuid 268971ce-1c4a-4803-997a-561d6b54e5b6)
  )
  (junction (at 124.714 38.227) (diameter 0) (color 0 0 0 0)
    (uuid 2855db7a-2a16-452d-a266-0bab57c1356f)
  )
  (junction (at 83.82 48.26) (diameter 0) (color 0 0 0 0)
    (uuid 2e47cb42-23a9-4652-b36e-83f89201d057)
  )
  (junction (at 48.895 57.785) (diameter 0) (color 0 0 0 0)
    (uuid 3beceb49-4630-4eeb-a932-4edcfef8a688)
  )
  (junction (at 60.96 40.64) (diameter 0) (color 0 0 0 0)
    (uuid 4723b153-b5be-469a-bb5d-6420e3301bf2)
  )
  (junction (at 71.755 40.64) (diameter 0) (color 0 0 0 0)
    (uuid 7826ffad-ff25-4dfa-aca6-59e016e66aa7)
  )
  (junction (at 124.714 51.562) (diameter 0) (color 0 0 0 0)
    (uuid 92c73310-690c-41da-8d28-1591dbf9f8f1)
  )
  (junction (at 100.33 48.26) (diameter 0) (color 0 0 0 0)
    (uuid a73ed293-0e72-4c60-a08e-e3b38803a847)
  )
  (junction (at 71.755 31.75) (diameter 0) (color 0 0 0 0)
    (uuid add99e72-e983-4699-8c14-15b0585438fa)
  )
  (junction (at 60.96 31.75) (diameter 0) (color 0 0 0 0)
    (uuid df4d6ed0-3fed-43b2-b11a-fc42f3fc193d)
  )
  (junction (at 121.539 43.307) (diameter 0) (color 0 0 0 0)
    (uuid f6430af6-473b-4441-9eaf-3fc128a8b9c2)
  )

  (wire (pts (xy 83.82 48.26) (xy 85.725 48.26))
    (stroke (width 0) (type default) (color 0 0 0 0))
    (uuid 004e475d-2629-401c-8452-a06713c678e9)
  )
  (polyline (pts (xy 107.442 19.939) (xy 107.442 75.184))
    (stroke (width 0) (type default) (color 0 0 0 0))
    (uuid 09389014-6316-4d15-9da3-f58aba6e3d11)
  )

  (wire (pts (xy 90.805 48.26) (xy 94.615 48.26))
    (stroke (width 0) (type default) (color 0 0 0 0))
    (uuid 0dd45062-cc36-421b-92dd-42f5b0f50197)
  )
  (wire (pts (xy 59.055 48.26) (xy 63.5 48.26))
    (stroke (width 0) (type default) (color 0 0 0 0))
    (uuid 0de3a89b-9a8d-48e5-91ee-4f69070b0a6d)
  )
  (wire (pts (xy 94.615 63.5) (xy 94.615 66.04))
    (stroke (width 0) (type default) (color 0 0 0 0))
    (uuid 0f723abd-1edf-4fd6-aa89-1d6d4f05a408)
  )
  (polyline (pts (xy 168.402 75.184) (xy 107.442 75.184))
    (stroke (width 0) (type default) (color 0 0 0 0))
    (uuid 107c2359-e4b3-41c8-953c-4735424b7515)
  )

  (wire (pts (xy 60.96 43.18) (xy 59.055 43.18))
    (stroke (width 0) (type default) (color 0 0 0 0))
    (uuid 120b0397-fe18-435c-a453-48a942e62418)
  )
  (wire (pts (xy 59.055 50.8) (xy 77.47 50.8))
    (stroke (width 0) (type default) (color 0 0 0 0))
    (uuid 1361c54e-c973-4dd4-92bb-908660f17c97)
  )
  (wire (pts (xy 71.755 31.75) (xy 81.28 31.75))
    (stroke (width 0) (type default) (color 0 0 0 0))
    (uuid 1449cf5e-6fc9-4b8d-aa8c-8770e692f24d)
  )
  (polyline (pts (xy 22.86 19.685) (xy 106.045 19.685))
    (stroke (width 0) (type default) (color 0 0 0 0))
    (uuid 155d795e-2d16-4338-aed2-79ea76a4e6c5)
  )

  (wire (pts (xy 48.895 57.785) (xy 63.5 57.785))
    (stroke (width 0) (type default) (color 0 0 0 0))
    (uuid 17ce52c3-482f-4997-8e59-29e4fce0b90a)
  )
  (polyline (pts (xy 106.045 74.93) (xy 22.86 74.93))
    (stroke (width 0) (type default) (color 0 0 0 0))
    (uuid 1bb53412-df72-4dac-8c1b-26e7c5725b21)
  )

  (wire (pts (xy 77.47 57.15) (xy 94.615 57.15))
    (stroke (width 0) (type default) (color 0 0 0 0))
    (uuid 1e3235f8-3021-44b4-b0c4-8ed3f1f5e516)
  )
  (wire (pts (xy 94.615 48.26) (xy 100.33 48.26))
    (stroke (width 0) (type default) (color 0 0 0 0))
    (uuid 1eb083cf-c97b-43f7-9b9f-055c36bf954c)
  )
  (wire (pts (xy 152.4 36.83) (xy 152.4 46.355))
    (stroke (width 0) (type default) (color 0 0 0 0))
    (uuid 21aaaf1e-4304-458b-99fd-752f2d9baa1d)
  )
  (wire (pts (xy 71.755 31.75) (xy 71.755 34.29))
    (stroke (width 0) (type default) (color 0 0 0 0))
    (uuid 250fd74e-6bc3-48cf-bd4f-4cdb168791b1)
  )
  (wire (pts (xy 35.56 43.18) (xy 35.56 45.085))
    (stroke (width 0) (type default) (color 0 0 0 0))
    (uuid 274c4f7c-65c8-43ff-84a8-2f3d6cdb37fd)
  )
  (wire (pts (xy 36.195 55.245) (xy 36.195 57.785))
    (stroke (width 0) (type default) (color 0 0 0 0))
    (uuid 30326018-6b3d-4887-b519-4ed60df8a39a)
  )
  (wire (pts (xy 149.225 48.895) (xy 154.305 48.895))
    (stroke (width 0) (type default) (color 0 0 0 0))
    (uuid 35a4586f-e608-45a5-b115-334ea44707ec)
  )
  (wire (pts (xy 60.96 40.64) (xy 60.96 43.18))
    (stroke (width 0) (type default) (color 0 0 0 0))
    (uuid 37ddd5ab-27fb-406f-b38f-8d73b4edc56f)
  )
  (wire (pts (xy 126.619 51.562) (xy 124.714 51.562))
    (stroke (width 0) (type default) (color 0 0 0 0))
    (uuid 3a329c36-d5a9-4bf6-b668-d74deb149204)
  )
  (wire (pts (xy 94.615 48.26) (xy 94.615 50.8))
    (stroke (width 0) (type default) (color 0 0 0 0))
    (uuid 3bad260c-40c4-4bb5-be80-3511610704ce)
  )
  (wire (pts (xy 59.055 40.64) (xy 60.96 40.64))
    (stroke (width 0) (type default) (color 0 0 0 0))
    (uuid 3d51c4be-a7c7-4c56-9b4a-71d776c17f97)
  )
  (wire (pts (xy 36.195 57.785) (xy 48.895 57.785))
    (stroke (width 0) (type default) (color 0 0 0 0))
    (uuid 3eeb526a-664f-47b8-89ef-c630a1ad8528)
  )
  (wire (pts (xy 63.5 57.785) (xy 63.5 48.26))
    (stroke (width 0) (type default) (color 0 0 0 0))
    (uuid 4bfd1554-f603-4f53-8f0e-17dac60578dc)
  )
  (wire (pts (xy 154.305 51.435) (xy 152.4 51.435))
    (stroke (width 0) (type default) (color 0 0 0 0))
    (uuid 5106cbae-aae8-4b75-94f8-d86e7e626ad8)
  )
  (wire (pts (xy 35.56 31.75) (xy 46.355 31.75))
    (stroke (width 0) (type default) (color 0 0 0 0))
    (uuid 57348182-75bf-486d-8ccb-4d8e67609446)
  )
  (wire (pts (xy 121.539 43.307) (xy 121.539 49.022))
    (stroke (width 0) (type default) (color 0 0 0 0))
    (uuid 57c98234-f91e-4820-aa8a-e9fab1bb4259)
  )
  (wire (pts (xy 35.56 38.1) (xy 35.56 31.75))
    (stroke (width 0) (type default) (color 0 0 0 0))
    (uuid 5baaeb78-db19-45c4-b406-47958677f056)
  )
  (wire (pts (xy 60.96 31.75) (xy 60.96 38.1))
    (stroke (width 0) (type default) (color 0 0 0 0))
    (uuid 5bfeff6c-27eb-4f86-a784-991490c9e4c1)
  )
  (wire (pts (xy 81.28 48.26) (xy 83.82 48.26))
    (stroke (width 0) (type default) (color 0 0 0 0))
    (uuid 5c317ed2-b6a7-4689-9d93-fcde89171a9b)
  )
  (wire (pts (xy 60.96 31.75) (xy 71.755 31.75))
    (stroke (width 0) (type default) (color 0 0 0 0))
    (uuid 63a2e2a8-b691-4d6a-8e82-61f17221fc44)
  )
  (wire (pts (xy 124.714 38.227) (xy 124.714 46.482))
    (stroke (width 0) (type default) (color 0 0 0 0))
    (uuid 64a49e1f-6ce7-48fe-9db3-3ec75eefcd7a)
  )
  (wire (pts (xy 83.82 63.5) (xy 83.82 66.04))
    (stroke (width 0) (type default) (color 0 0 0 0))
    (uuid 6d0b3d29-fa3f-4257-8b8d-3744d3d97347)
  )
  (wire (pts (xy 35.56 31.75) (xy 35.56 29.845))
    (stroke (width 0) (type default) (color 0 0 0 0))
    (uuid 72bdc3c2-eead-4f9a-ae55-a022248300aa)
  )
  (wire (pts (xy 36.195 48.26) (xy 36.195 50.165))
    (stroke (width 0) (type default) (color 0 0 0 0))
    (uuid 773d2cb7-a5e8-46f9-8f9e-da7ec9c35a82)
  )
  (wire (pts (xy 100.33 46.355) (xy 100.33 48.26))
    (stroke (width 0) (type default) (color 0 0 0 0))
    (uuid 7af1cbd1-ea3b-4449-bf28-b5cda7966b12)
  )
  (wire (pts (xy 48.895 57.785) (xy 48.895 55.88))
    (stroke (width 0) (type default) (color 0 0 0 0))
    (uuid 7ded6648-9a8e-409c-8504-e479067a19e4)
  )
  (wire (pts (xy 63.5 48.26) (xy 63.5 46.355))
    (stroke (width 0) (type default) (color 0 0 0 0))
    (uuid 847eff91-d7ed-4e78-9bf7-747d96628add)
  )
  (wire (pts (xy 124.714 51.562) (xy 124.714 56.642))
    (stroke (width 0) (type default) (color 0 0 0 0))
    (uuid 8579abce-0cd6-4492-8e0d-e0ca640246cf)
  )
  (wire (pts (xy 83.82 45.72) (xy 83.82 48.26))
    (stroke (width 0) (type default) (color 0 0 0 0))
    (uuid 8be5ee94-b5b3-482e-95b9-512c0badcd2e)
  )
  (wire (pts (xy 81.28 48.26) (xy 81.28 45.72))
    (stroke (width 0) (type default) (color 0 0 0 0))
    (uuid 8de9c4c8-f6de-450c-88c3-ea7851c0a390)
  )
  (wire (pts (xy 51.435 31.75) (xy 60.96 31.75))
    (stroke (width 0) (type default) (color 0 0 0 0))
    (uuid 8fa91edf-230a-45e5-967e-1a9fe8d6d5b0)
  )
  (wire (pts (xy 77.47 50.8) (xy 77.47 57.15))
    (stroke (width 0) (type default) (color 0 0 0 0))
    (uuid 91966c36-9e2f-4912-9f65-c9dcbe1aac0d)
  )
  (polyline (pts (xy 22.86 19.685) (xy 22.86 74.93))
    (stroke (width 0) (type default) (color 0 0 0 0))
    (uuid 980db498-c84c-400b-af4d-80971a89addc)
  )
  (polyline (pts (xy 107.442 19.939) (xy 168.402 19.939))
    (stroke (width 0) (type default) (color 0 0 0 0))
    (uuid 9948b96c-ac28-4dd5-bd7c-3bd80317ef71)
  )

  (wire (pts (xy 59.055 38.1) (xy 60.96 38.1))
    (stroke (width 0) (type default) (color 0 0 0 0))
    (uuid 9afdb78f-11f0-4f61-a72c-aa8ad776edaf)
  )
  (wire (pts (xy 149.225 36.83) (xy 149.225 48.895))
    (stroke (width 0) (type default) (color 0 0 0 0))
    (uuid 9fd2e2ea-f1e9-466e-a59a-2e92933df51e)
  )
  (wire (pts (xy 38.735 48.26) (xy 36.195 48.26))
    (stroke (width 0) (type default) (color 0 0 0 0))
    (uuid a0188e7b-20ae-45c2-9ed0-be95537b3414)
  )
  (wire (pts (xy 152.4 51.435) (xy 152.4 56.515))
    (stroke (width 0) (type default) (color 0 0 0 0))
    (uuid a4f3a17d-1465-4a35-9f29-1b1c80d64f9a)
  )
  (wire (pts (xy 81.28 31.75) (xy 81.28 35.56))
    (stroke (width 0) (type default) (color 0 0 0 0))
    (uuid a62c302c-f5ae-486d-b891-4b7129064aaa)
  )
  (wire (pts (xy 124.714 46.482) (xy 126.619 46.482))
    (stroke (width 0) (type default) (color 0 0 0 0))
    (uuid aaa9c16a-39e6-4c10-b96a-ed060616c1df)
  )
  (wire (pts (xy 69.215 40.64) (xy 71.755 40.64))
    (stroke (width 0) (type default) (color 0 0 0 0))
    (uuid bf535722-99e4-4c0c-9b69-0f81a0503276)
  )
  (polyline (pts (xy 106.045 19.685) (xy 106.045 74.93))
    (stroke (width 0) (type default) (color 0 0 0 0))
    (uuid c1d7ce46-1b6c-481e-a80b-b621b4e81889)
  )

  (wire (pts (xy 100.33 59.69) (xy 100.33 66.04))
    (stroke (width 0) (type default) (color 0 0 0 0))
    (uuid c6a89d64-bf2b-4ce5-b633-ad2da9544a69)
  )
  (wire (pts (xy 94.615 55.88) (xy 94.615 57.15))
    (stroke (width 0) (type default) (color 0 0 0 0))
    (uuid cb7fba8d-7897-4e81-9f0b-420348de7582)
  )
  (wire (pts (xy 94.615 57.15) (xy 94.615 58.42))
    (stroke (width 0) (type default) (color 0 0 0 0))
    (uuid d5244b67-a777-4313-8a6f-bcb308bab618)
  )
  (wire (pts (xy 71.755 39.37) (xy 71.755 40.64))
    (stroke (width 0) (type default) (color 0 0 0 0))
    (uuid daa9b6ba-8dea-4ce7-b5d4-c73248830dff)
  )
  (wire (pts (xy 83.82 58.42) (xy 83.82 48.26))
    (stroke (width 0) (type default) (color 0 0 0 0))
    (uuid dc7fe539-e5c1-4709-93b1-ff5b3bf198b1)
  )
  (wire (pts (xy 60.96 40.64) (xy 64.135 40.64))
    (stroke (width 0) (type default) (color 0 0 0 0))
    (uuid decee7ca-1316-4b9d-80fa-e8de2cc81d59)
  )
  (wire (pts (xy 38.735 38.1) (xy 35.56 38.1))
    (stroke (width 0) (type default) (color 0 0 0 0))
    (uuid e0e2da48-a12d-4da4-aead-39ecc6bdd1ce)
  )
  (wire (pts (xy 121.539 49.022) (xy 126.619 49.022))
    (stroke (width 0) (type default) (color 0 0 0 0))
    (uuid e3a93b7f-67f6-4215-8992-fc25710a1654)
  )
  (wire (pts (xy 124.714 36.957) (xy 124.714 38.227))
    (stroke (width 0) (type default) (color 0 0 0 0))
    (uuid ea48606d-c90b-456a-9e1d-936bbed276e7)
  )
  (wire (pts (xy 100.33 48.26) (xy 100.33 54.61))
    (stroke (width 0) (type default) (color 0 0 0 0))
    (uuid eaa07ea2-7ce3-49a1-946e-9c539bd6aa2a)
  )
  (wire (pts (xy 152.4 46.355) (xy 154.305 46.355))
    (stroke (width 0) (type default) (color 0 0 0 0))
    (uuid efdf5e7f-f253-484c-adc4-eb7ccece68c5)
  )
  (wire (pts (xy 121.539 36.957) (xy 121.539 43.307))
    (stroke (width 0) (type default) (color 0 0 0 0))
    (uuid f5c403a0-e885-4423-bed2-ca542aa9fa39)
  )
  (wire (pts (xy 71.755 40.64) (xy 73.66 40.64))
    (stroke (width 0) (type default) (color 0 0 0 0))
    (uuid f685782f-7428-4c0b-a488-ed6cc83b9038)
  )
  (polyline (pts (xy 168.402 19.939) (xy 168.402 75.184))
    (stroke (width 0) (type default) (color 0 0 0 0))
    (uuid fff8bcf7-2beb-460b-87be-aa1d752efbc3)
  )

  (text "Anode/Grid Supply (-27V)\nOptional" (at 24.13 24.765 0)
    (effects (font (size 1.27 1.27)) (justify left bottom))
    (uuid 1e0ab13f-72c8-4dff-aeef-857df9df731f)
  )
  (text "Power Connector" (at 108.712 23.114 0)
    (effects (font (size 1.27 1.27)) (justify left bottom))
    (uuid 2613d2f1-dd14-452d-8543-a97367d8d0e3)
  )

  (symbol (lib_id "Regulator_Switching:MC34063AD") (at 48.895 43.18 0) (unit 1)
    (in_bom yes) (on_board yes)
    (uuid 092d037a-d707-4f0d-9666-4cdc755807d2)
    (property "Reference" "U1" (id 0) (at 41.91 55.245 0))
    (property "Value" "MC34063AD" (id 1) (at 46.99 34.29 0))
    (property "Footprint" "Package_SO:SOIC-8_3.9x4.9mm_P1.27mm" (id 2) (at 50.165 54.61 0)
      (effects (font (size 1.27 1.27)) (justify left) hide)
    )
    (property "Datasheet" "http://www.onsemi.com/pub_link/Collateral/MC34063A-D.PDF" (id 3) (at 61.595 45.72 0)
      (effects (font (size 1.27 1.27)) hide)
    )
    (pin "1" (uuid 19bf5415-4bdd-4f6c-b4b8-895028d1d380))
    (pin "2" (uuid 6bfc069b-0171-49f1-b5fe-0ec3cab8585b))
    (pin "3" (uuid b1d18bb3-0e1d-4c34-8b6c-cd6056233f56))
    (pin "4" (uuid 6daf8cce-acdd-4ff5-9aef-6e5dc8973c84))
    (pin "5" (uuid cc93f738-1398-4ea4-9ec4-5fb35d786b83))
    (pin "6" (uuid c11c8f1b-f616-442a-9e96-351d4dd15298))
    (pin "7" (uuid a7b1a71f-61e7-4ddd-affc-ba9e6f1d305c))
    (pin "8" (uuid 9fb44913-c2b2-40e8-b4d4-3cd625e890f3))
  )

  (symbol (lib_id "Device:D_Schottky_Small") (at 88.265 48.26 0) (unit 1)
    (in_bom yes) (on_board yes)
    (uuid 0e61579a-2c3f-4b19-9cdf-a342dadb1dbe)
    (property "Reference" "D1" (id 0) (at 88.265 50.8 0)
      (effects (font (size 1.27 1.27)) (justify left))
    )
    (property "Value" "SS16" (id 1) (at 85.725 45.72 0)
      (effects (font (size 1.27 1.27)) (justify left))
    )
    (property "Footprint" "Diode_SMD:D_SMA_Handsoldering" (id 2) (at 88.265 48.26 90)
      (effects (font (size 1.27 1.27)) hide)
    )
    (property "Datasheet" "~" (id 3) (at 88.265 48.26 90)
      (effects (font (size 1.27 1.27)) hide)
    )
    (pin "1" (uuid f1f7e3be-ea0b-48dd-9809-b99022d59e9d))
    (pin "2" (uuid e81a57d3-93ea-4927-9d68-db5969a764f4))
  )

  (symbol (lib_id "power:VCC") (at 149.225 36.83 0) (unit 1)
    (in_bom yes) (on_board yes)
    (uuid 2362a4d0-cdae-4a15-8d3e-a35d3cd59a68)
    (property "Reference" "#PWR?" (id 0) (at 149.225 40.64 0)
      (effects (font (size 1.27 1.27)) hide)
    )
    (property "Value" "VCC" (id 1) (at 147.955 33.02 0))
    (property "Footprint" "" (id 2) (at 149.225 36.83 0)
      (effects (font (size 1.27 1.27)) hide)
    )
    (property "Datasheet" "" (id 3) (at 149.225 36.83 0)
      (effects (font (size 1.27 1.27)) hide)
    )
    (pin "1" (uuid f400140e-0659-4cd0-a137-ffbf193683b8))
  )

  (symbol (lib_id "power:GND") (at 124.714 56.642 0) (unit 1)
    (in_bom yes) (on_board yes) (fields_autoplaced)
    (uuid 2c4740f2-524b-4892-80a5-ae69dee7ef2a)
    (property "Reference" "#PWR032" (id 0) (at 124.714 62.992 0)
      (effects (font (size 1.27 1.27)) hide)
    )
    (property "Value" "GND" (id 1) (at 124.714 61.087 0))
    (property "Footprint" "" (id 2) (at 124.714 56.642 0)
      (effects (font (size 1.27 1.27)) hide)
    )
    (property "Datasheet" "" (id 3) (at 124.714 56.642 0)
      (effects (font (size 1.27 1.27)) hide)
    )
    (pin "1" (uuid c1f17419-8a80-4cce-9ce2-e0d67e694d66))
  )

  (symbol (lib_id "Device:R_Small") (at 94.615 53.34 0) (unit 1)
    (in_bom yes) (on_board yes)
    (uuid 3356e5ac-6ff1-4c67-a4f3-b98ca8bd9955)
    (property "Reference" "R2" (id 0) (at 92.71 53.34 90))
    (property "Value" "3.3K" (id 1) (at 96.52 53.34 90))
    (property "Footprint" "Resistor_SMD:R_0603_1608Metric_Pad0.98x0.95mm_HandSolder" (id 2) (at 94.615 53.34 0)
      (effects (font (size 1.27 1.27)) hide)
    )
    (property "Datasheet" "~" (id 3) (at 94.615 53.34 0)
      (effects (font (size 1.27 1.27)) hide)
    )
    (pin "1" (uuid 2c766428-b839-42a2-a68e-b65dd54e2eaf))
    (pin "2" (uuid cc2c3ea0-ff85-484b-b305-7b45aba3a47f))
  )

  (symbol (lib_id "power:VEE") (at 100.33 46.355 0) (unit 1)
    (in_bom yes) (on_board yes)
    (uuid 34191933-19a2-45a5-ba6a-855d75375715)
    (property "Reference" "#PWR07" (id 0) (at 100.33 50.165 0)
      (effects (font (size 1.27 1.27)) hide)
    )
    (property "Value" "VEE" (id 1) (at 100.33 42.545 0))
    (property "Footprint" "" (id 2) (at 100.33 46.355 0)
      (effects (font (size 1.27 1.27)) hide)
    )
    (property "Datasheet" "" (id 3) (at 100.33 46.355 0)
      (effects (font (size 1.27 1.27)) hide)
    )
    (pin "1" (uuid f64cf00f-abc7-49f6-9299-a489cb84f2cb))
  )

  (symbol (lib_id "power:VEE") (at 63.5 46.355 0) (unit 1)
    (in_bom yes) (on_board yes)
    (uuid 404a9c86-45d4-4519-9964-f0ce9d5b6cd5)
    (property "Reference" "#PWR?" (id 0) (at 63.5 50.165 0)
      (effects (font (size 1.27 1.27)) hide)
    )
    (property "Value" "VEE" (id 1) (at 63.5 42.545 0))
    (property "Footprint" "" (id 2) (at 63.5 46.355 0)
      (effects (font (size 1.27 1.27)) hide)
    )
    (property "Datasheet" "" (id 3) (at 63.5 46.355 0)
      (effects (font (size 1.27 1.27)) hide)
    )
    (pin "1" (uuid bd26381a-5974-4d62-b33c-89104a4c844b))
  )

  (symbol (lib_id "Device:Q_PNP_BCEC") (at 78.74 40.64 0) (mirror x) (unit 1)
    (in_bom yes) (on_board yes)
    (uuid 40940dcb-2378-44b4-be3d-8be0f86bfaab)
    (property "Reference" "Q1" (id 0) (at 74.93 37.465 0)
      (effects (font (size 1.27 1.27)) (justify left))
    )
    (property "Value" "BDP950" (id 1) (at 83.185 37.465 0)
      (effects (font (size 1.27 1.27)) (justify left))
    )
    (property "Footprint" "Package_TO_SOT_SMD:SOT-223" (id 2) (at 83.82 43.18 0)
      (effects (font (size 1.27 1.27)) hide)
    )
    (property "Datasheet" "~" (id 3) (at 78.74 40.64 0)
      (effects (font (size 1.27 1.27)) hide)
    )
    (pin "1" (uuid a1954f04-dc0e-46ce-a566-3a63c876456c))
    (pin "2" (uuid 33bdf312-53ca-4d93-b644-ea981ab4e33c))
    (pin "3" (uuid 9acae71d-0959-41ad-a07a-6584c310aeb5))
    (pin "4" (uuid aff3b132-6224-4ab5-a5f7-47b80fb85817))
  )

  (symbol (lib_id "power:PWR_FLAG") (at 124.714 38.227 270) (unit 1)
    (in_bom yes) (on_board yes)
    (uuid 440cf417-27be-44dd-936a-4c0e84b1c722)
    (property "Reference" "#FLG04" (id 0) (at 126.619 38.227 0)
      (effects (font (size 1.27 1.27)) hide)
    )
    (property "Value" "PWR_FLAG" (id 1) (at 127.889 38.227 90)
      (effects (font (size 1.27 1.27)) (justify left))
    )
    (property "Footprint" "" (id 2) (at 124.714 38.227 0)
      (effects (font (size 1.27 1.27)) hide)
    )
    (property "Datasheet" "~" (id 3) (at 124.714 38.227 0)
      (effects (font (size 1.27 1.27)) hide)
    )
    (pin "1" (uuid 30599866-b418-47a6-8051-2219448d9e4f))
  )

  (symbol (lib_id "Connector_Generic:Conn_01x03") (at 131.699 49.022 0) (unit 1)
    (in_bom yes) (on_board yes) (fields_autoplaced)
    (uuid 47dd71b7-22c1-4214-90d3-9aa801c83840)
    (property "Reference" "J2" (id 0) (at 134.239 47.7519 0)
      (effects (font (size 1.27 1.27)) (justify left))
    )
    (property "Value" "PWR" (id 1) (at 134.239 50.2919 0)
      (effects (font (size 1.27 1.27)) (justify left))
    )
    (property "Footprint" "Connector_PinHeader_2.54mm:PinHeader_1x03_P2.54mm_Vertical" (id 2) (at 131.699 49.022 0)
      (effects (font (size 1.27 1.27)) hide)
    )
    (property "Datasheet" "~" (id 3) (at 131.699 49.022 0)
      (effects (font (size 1.27 1.27)) hide)
    )
    (pin "1" (uuid 00b9e3eb-131f-4406-8ca8-6cc09759a6f7))
    (pin "2" (uuid 97564d99-f928-4ff9-a5cf-aa26d2fa22e7))
    (pin "3" (uuid f4f5af31-ef30-443d-8101-9117086fef60))
  )

  (symbol (lib_id "Device:C_Polarized_Small") (at 100.33 57.15 180) (unit 1)
    (in_bom yes) (on_board yes)
    (uuid 48b8eb07-1048-4ca8-acbc-b179c09dfb02)
    (property "Reference" "C3" (id 0) (at 99.06 55.88 90)
      (effects (font (size 1.27 1.27)) (justify right))
    )
    (property "Value" "330uF/35V" (id 1) (at 103.505 62.23 90)
      (effects (font (size 1.27 1.27)) (justify right))
    )
    (property "Footprint" "Capacitor_SMD:CP_Elec_10x10.5" (id 2) (at 100.33 57.15 0)
      (effects (font (size 1.27 1.27)) hide)
    )
    (property "Datasheet" "~" (id 3) (at 100.33 57.15 0)
      (effects (font (size 1.27 1.27)) hide)
    )
    (pin "1" (uuid 6c35c3ea-3817-4bd7-8c17-8542b3833407))
    (pin "2" (uuid ce212bec-2d07-4a25-968e-e93ea597437a))
  )

  (symbol (lib_id "power:GND") (at 35.56 45.085 0) (unit 1)
    (in_bom yes) (on_board yes)
    (uuid 4ba53cea-8162-46dc-927c-7ad22589aea8)
    (property "Reference" "#PWR02" (id 0) (at 35.56 51.435 0)
      (effects (font (size 1.27 1.27)) hide)
    )
    (property "Value" "GND" (id 1) (at 31.115 46.99 0))
    (property "Footprint" "" (id 2) (at 35.56 45.085 0)
      (effects (font (size 1.27 1.27)) hide)
    )
    (property "Datasheet" "" (id 3) (at 35.56 45.085 0)
      (effects (font (size 1.27 1.27)) hide)
    )
    (pin "1" (uuid 7131f16a-2bc3-4058-9cbe-c36866f0eb37))
  )

  (symbol (lib_id "Device:C_Polarized_Small") (at 35.56 40.64 0) (unit 1)
    (in_bom yes) (on_board yes)
    (uuid 5f9a10e6-c9cc-47a8-a2b6-fca05ce3e786)
    (property "Reference" "C1" (id 0) (at 31.115 38.1 0)
      (effects (font (size 1.27 1.27)) (justify left))
    )
    (property "Value" "100uF/10V" (id 1) (at 24.13 43.18 0)
      (effects (font (size 1.27 1.27)) (justify left))
    )
    (property "Footprint" "Capacitor_SMD:CP_Elec_5x5.4" (id 2) (at 35.56 40.64 0)
      (effects (font (size 1.27 1.27)) hide)
    )
    (property "Datasheet" "~" (id 3) (at 35.56 40.64 0)
      (effects (font (size 1.27 1.27)) hide)
    )
    (pin "1" (uuid fde32e1e-b519-4498-bf98-e290f311de68))
    (pin "2" (uuid baad823d-be7d-4d4d-9ed0-20bae3383841))
  )

  (symbol (lib_id "power:GND") (at 152.4 56.515 0) (unit 1)
    (in_bom yes) (on_board yes) (fields_autoplaced)
    (uuid 7227b4ef-06f6-4dce-8cd1-8ac3018e51c6)
    (property "Reference" "#PWR?" (id 0) (at 152.4 62.865 0)
      (effects (font (size 1.27 1.27)) hide)
    )
    (property "Value" "GND" (id 1) (at 152.4 60.96 0))
    (property "Footprint" "" (id 2) (at 152.4 56.515 0)
      (effects (font (size 1.27 1.27)) hide)
    )
    (property "Datasheet" "" (id 3) (at 152.4 56.515 0)
      (effects (font (size 1.27 1.27)) hide)
    )
    (pin "1" (uuid d29ec899-5d1b-47df-8d1f-ace9cbd7cb8a))
  )

  (symbol (lib_id "power:GND") (at 83.82 66.04 0) (unit 1)
    (in_bom yes) (on_board yes) (fields_autoplaced)
    (uuid 7689cb57-58ce-4d82-9c52-227210256081)
    (property "Reference" "#PWR04" (id 0) (at 83.82 72.39 0)
      (effects (font (size 1.27 1.27)) hide)
    )
    (property "Value" "GND" (id 1) (at 83.82 70.485 0))
    (property "Footprint" "" (id 2) (at 83.82 66.04 0)
      (effects (font (size 1.27 1.27)) hide)
    )
    (property "Datasheet" "" (id 3) (at 83.82 66.04 0)
      (effects (font (size 1.27 1.27)) hide)
    )
    (pin "1" (uuid aed53181-bee3-4c31-98de-496e95a95fac))
  )

  (symbol (lib_id "Device:R_Small") (at 48.895 31.75 90) (unit 1)
    (in_bom yes) (on_board yes)
    (uuid 7a233d4c-a137-4439-8a6d-aff185596a7a)
    (property "Reference" "R1" (id 0) (at 46.355 29.21 90))
    (property "Value" "0.22" (id 1) (at 52.07 29.21 90))
    (property "Footprint" "Resistor_SMD:R_1206_3216Metric_Pad1.30x1.75mm_HandSolder" (id 2) (at 48.895 31.75 0)
      (effects (font (size 1.27 1.27)) hide)
    )
    (property "Datasheet" "~" (id 3) (at 48.895 31.75 0)
      (effects (font (size 1.27 1.27)) hide)
    )
    (pin "1" (uuid d1a7075b-3591-4f37-98fe-b3233de3859b))
    (pin "2" (uuid 8fc692ed-f10e-4d8c-8b07-28f94bbdae7d))
  )

  (symbol (lib_id "Device:C_Small") (at 36.195 52.705 0) (unit 1)
    (in_bom yes) (on_board yes)
    (uuid 7ef0b45f-9439-42aa-90bf-513608f12e5b)
    (property "Reference" "C2" (id 0) (at 31.75 50.8 0)
      (effects (font (size 1.27 1.27)) (justify left))
    )
    (property "Value" "390pF" (id 1) (at 29.21 55.245 0)
      (effects (font (size 1.27 1.27)) (justify left))
    )
    (property "Footprint" "Capacitor_SMD:C_0603_1608Metric_Pad1.08x0.95mm_HandSolder" (id 2) (at 36.195 52.705 0)
      (effects (font (size 1.27 1.27)) hide)
    )
    (property "Datasheet" "~" (id 3) (at 36.195 52.705 0)
      (effects (font (size 1.27 1.27)) hide)
    )
    (pin "1" (uuid 054f681d-95bb-4660-ba51-bfb655173878))
    (pin "2" (uuid 7a8447ec-9ea7-4033-baba-50e44b88e707))
  )

  (symbol (lib_id "power:VCC") (at 121.539 36.957 0) (unit 1)
    (in_bom yes) (on_board yes)
    (uuid 8c5e4e27-0c80-44e1-86d8-3567eb955d86)
    (property "Reference" "#PWR030" (id 0) (at 121.539 40.767 0)
      (effects (font (size 1.27 1.27)) hide)
    )
    (property "Value" "VCC" (id 1) (at 120.269 33.147 0))
    (property "Footprint" "" (id 2) (at 121.539 36.957 0)
      (effects (font (size 1.27 1.27)) hide)
    )
    (property "Datasheet" "" (id 3) (at 121.539 36.957 0)
      (effects (font (size 1.27 1.27)) hide)
    )
    (pin "1" (uuid 7eae1c4b-a90b-4e8b-a30b-a199edadec80))
  )

  (symbol (lib_id "power:VCC") (at 35.56 29.845 0) (unit 1)
    (in_bom yes) (on_board yes)
    (uuid 8f6e427d-93d1-484b-937e-91974aa6de5c)
    (property "Reference" "#PWR01" (id 0) (at 35.56 33.655 0)
      (effects (font (size 1.27 1.27)) hide)
    )
    (property "Value" "VCC" (id 1) (at 34.29 26.035 0))
    (property "Footprint" "" (id 2) (at 35.56 29.845 0)
      (effects (font (size 1.27 1.27)) hide)
    )
    (property "Datasheet" "" (id 3) (at 35.56 29.845 0)
      (effects (font (size 1.27 1.27)) hide)
    )
    (pin "1" (uuid ef0baf2d-a5d3-4347-9a6c-06a7a7fb88fd))
  )

  (symbol (lib_id "power:PWR_FLAG") (at 121.539 43.307 90) (unit 1)
    (in_bom yes) (on_board yes)
    (uuid 9a691848-5a76-4cf1-990f-8c2c64912d2a)
    (property "Reference" "#FLG01" (id 0) (at 119.634 43.307 0)
      (effects (font (size 1.27 1.27)) hide)
    )
    (property "Value" "PWR_FLAG" (id 1) (at 113.919 43.307 90))
    (property "Footprint" "" (id 2) (at 121.539 43.307 0)
      (effects (font (size 1.27 1.27)) hide)
    )
    (property "Datasheet" "~" (id 3) (at 121.539 43.307 0)
      (effects (font (size 1.27 1.27)) hide)
    )
    (pin "1" (uuid 45e89ff5-7053-48ce-8f39-4d767312037a))
  )

  (symbol (lib_id "Device:R_Small") (at 94.615 60.96 0) (unit 1)
    (in_bom yes) (on_board yes)
    (uuid a3bc9844-6c14-47c8-a992-9c33427e5a76)
    (property "Reference" "R3" (id 0) (at 92.71 62.23 90)
      (effects (font (size 1.27 1.27)) (justify left))
    )
    (property "Value" "68K" (id 1) (at 97.155 62.865 90)
      (effects (font (size 1.27 1.27)) (justify left))
    )
    (property "Footprint" "Resistor_SMD:R_0603_1608Metric_Pad0.98x0.95mm_HandSolder" (id 2) (at 94.615 60.96 0)
      (effects (font (size 1.27 1.27)) hide)
    )
    (property "Datasheet" "~" (id 3) (at 94.615 60.96 0)
      (effects (font (size 1.27 1.27)) hide)
    )
    (pin "1" (uuid 4d5dec3d-f7c2-4798-94d5-04a67fe3186d))
    (pin "2" (uuid dd981d97-9730-445e-9e04-9ea05afd0823))
  )

  (symbol (lib_id "Connector_Generic:Conn_01x03") (at 159.385 48.895 0) (unit 1)
    (in_bom yes) (on_board yes) (fields_autoplaced)
    (uuid ad541873-9a3b-4837-8b49-0e4e42d4f044)
    (property "Reference" "J1" (id 0) (at 161.925 47.6249 0)
      (effects (font (size 1.27 1.27)) (justify left))
    )
    (property "Value" "PWR" (id 1) (at 161.925 50.1649 0)
      (effects (font (size 1.27 1.27)) (justify left))
    )
    (property "Footprint" "Connector_PinHeader_2.54mm:PinHeader_1x03_P2.54mm_Vertical" (id 2) (at 159.385 48.895 0)
      (effects (font (size 1.27 1.27)) hide)
    )
    (property "Datasheet" "~" (id 3) (at 159.385 48.895 0)
      (effects (font (size 1.27 1.27)) hide)
    )
    (pin "1" (uuid 6dc6197b-c5bc-41b5-858b-4169c55f3434))
    (pin "2" (uuid 9ad4010f-40b1-4ba7-9d2a-7f13b7563702))
    (pin "3" (uuid 77d9b7da-42cc-42a5-a3c7-7f603fa562c1))
  )

  (symbol (lib_id "power:VEE") (at 152.4 36.83 0) (unit 1)
    (in_bom yes) (on_board yes)
    (uuid bb1a040f-8aac-41de-943d-71e59945a978)
    (property "Reference" "#PWR?" (id 0) (at 152.4 40.64 0)
      (effects (font (size 1.27 1.27)) hide)
    )
    (property "Value" "VEE" (id 1) (at 153.035 33.02 0))
    (property "Footprint" "" (id 2) (at 152.4 36.83 0)
      (effects (font (size 1.27 1.27)) hide)
    )
    (property "Datasheet" "" (id 3) (at 152.4 36.83 0)
      (effects (font (size 1.27 1.27)) hide)
    )
    (pin "1" (uuid 9117087f-0ea3-4005-a48f-296b7222048b))
  )

  (symbol (lib_id "power:VEE") (at 124.714 36.957 0) (unit 1)
    (in_bom yes) (on_board yes)
    (uuid c483a4ec-f80a-492f-af6a-3656d813ac9b)
    (property "Reference" "#PWR031" (id 0) (at 124.714 40.767 0)
      (effects (font (size 1.27 1.27)) hide)
    )
    (property "Value" "VEE" (id 1) (at 125.349 33.147 0))
    (property "Footprint" "" (id 2) (at 124.714 36.957 0)
      (effects (font (size 1.27 1.27)) hide)
    )
    (property "Datasheet" "" (id 3) (at 124.714 36.957 0)
      (effects (font (size 1.27 1.27)) hide)
    )
    (pin "1" (uuid 512de523-ae2b-41b6-9b32-d0a494003b9b))
  )

  (symbol (lib_id "Device:L_Iron_Small") (at 83.82 60.96 0) (unit 1)
    (in_bom yes) (on_board yes)
    (uuid c9fd269d-b008-404c-9401-b3678644193f)
    (property "Reference" "L1" (id 0) (at 85.09 62.23 0)
      (effects (font (size 1.27 1.27)) (justify left))
    )
    (property "Value" "47uH" (id 1) (at 82.55 63.5 90)
      (effects (font (size 1.27 1.27)) (justify left))
    )
    (property "Footprint" "Inductor_SMD:L_Fastron_PISR_Handsoldering" (id 2) (at 83.82 60.96 0)
      (effects (font (size 1.27 1.27)) hide)
    )
    (property "Datasheet" "~" (id 3) (at 83.82 60.96 0)
      (effects (font (size 1.27 1.27)) hide)
    )
    (pin "1" (uuid 13d55bf0-c8d2-47e3-833f-76dc9f477db8))
    (pin "2" (uuid 58a8a008-3f29-4c90-97bc-0e2210d87dab))
  )

  (symbol (lib_id "power:GND") (at 94.615 66.04 0) (unit 1)
    (in_bom yes) (on_board yes) (fields_autoplaced)
    (uuid cde97853-8f82-40ad-82b9-26e33721d4c3)
    (property "Reference" "#PWR05" (id 0) (at 94.615 72.39 0)
      (effects (font (size 1.27 1.27)) hide)
    )
    (property "Value" "GND" (id 1) (at 94.615 70.485 0))
    (property "Footprint" "" (id 2) (at 94.615 66.04 0)
      (effects (font (size 1.27 1.27)) hide)
    )
    (property "Datasheet" "" (id 3) (at 94.615 66.04 0)
      (effects (font (size 1.27 1.27)) hide)
    )
    (pin "1" (uuid 5c099a0c-09db-4fb0-90ea-28f0210e9546))
  )

  (symbol (lib_id "power:GND") (at 100.33 66.04 0) (unit 1)
    (in_bom yes) (on_board yes) (fields_autoplaced)
    (uuid d6680ebe-fa04-47b0-96de-6d646ad8501e)
    (property "Reference" "#PWR06" (id 0) (at 100.33 72.39 0)
      (effects (font (size 1.27 1.27)) hide)
    )
    (property "Value" "GND" (id 1) (at 100.33 70.485 0))
    (property "Footprint" "" (id 2) (at 100.33 66.04 0)
      (effects (font (size 1.27 1.27)) hide)
    )
    (property "Datasheet" "" (id 3) (at 100.33 66.04 0)
      (effects (font (size 1.27 1.27)) hide)
    )
    (pin "1" (uuid e65f94ae-9857-4dee-931d-0b48fd7d1c09))
  )

  (symbol (lib_id "Device:R_Small") (at 66.675 40.64 90) (unit 1)
    (in_bom yes) (on_board yes)
    (uuid dab0a0d9-b658-47cc-9107-75ec828eb45f)
    (property "Reference" "R5" (id 0) (at 70.485 43.815 0)
      (effects (font (size 1.27 1.27)) (justify left))
    )
    (property "Value" "1K" (id 1) (at 68.58 38.735 90)
      (effects (font (size 1.27 1.27)) (justify left))
    )
    (property "Footprint" "Resistor_SMD:R_1206_3216Metric_Pad1.30x1.75mm_HandSolder" (id 2) (at 66.675 40.64 0)
      (effects (font (size 1.27 1.27)) hide)
    )
    (property "Datasheet" "~" (id 3) (at 66.675 40.64 0)
      (effects (font (size 1.27 1.27)) hide)
    )
    (pin "1" (uuid 4729a223-b6f5-4b93-8534-838dd2dfa550))
    (pin "2" (uuid a624f649-7254-4093-a2b3-8dc78ec53439))
  )

  (symbol (lib_id "power:PWR_FLAG") (at 124.714 51.562 90) (unit 1)
    (in_bom yes) (on_board yes) (fields_autoplaced)
    (uuid f77a57d2-876d-4729-a191-7bbc3168f367)
    (property "Reference" "#FLG05" (id 0) (at 122.809 51.562 0)
      (effects (font (size 1.27 1.27)) hide)
    )
    (property "Value" "PWR_FLAG" (id 1) (at 121.539 51.5619 90)
      (effects (font (size 1.27 1.27)) (justify left))
    )
    (property "Footprint" "" (id 2) (at 124.714 51.562 0)
      (effects (font (size 1.27 1.27)) hide)
    )
    (property "Datasheet" "~" (id 3) (at 124.714 51.562 0)
      (effects (font (size 1.27 1.27)) hide)
    )
    (pin "1" (uuid 6a470774-e475-4447-b3e1-c6c517dcd3f8))
  )

  (symbol (lib_id "Device:R_Small") (at 71.755 36.83 180) (unit 1)
    (in_bom yes) (on_board yes)
    (uuid fd3ffbfe-41ab-46e5-816e-344c1a0d4495)
    (property "Reference" "R4" (id 0) (at 74.93 33.02 0)
      (effects (font (size 1.27 1.27)) (justify left))
    )
    (property "Value" "22K" (id 1) (at 69.85 34.925 90)
      (effects (font (size 1.27 1.27)) (justify left))
    )
    (property "Footprint" "Resistor_SMD:R_0603_1608Metric_Pad0.98x0.95mm_HandSolder" (id 2) (at 71.755 36.83 0)
      (effects (font (size 1.27 1.27)) hide)
    )
    (property "Datasheet" "~" (id 3) (at 71.755 36.83 0)
      (effects (font (size 1.27 1.27)) hide)
    )
    (pin "1" (uuid 183fd5f3-06f7-4e12-b103-6edc698267fe))
    (pin "2" (uuid 8b63f0b7-a085-48d7-a297-30d9b9b8585e))
  )

  (sheet_instances
    (path "/" (page "1"))
  )

  (symbol_instances
    (path "/9a691848-5a76-4cf1-990f-8c2c64912d2a"
      (reference "#FLG01") (unit 1) (value "PWR_FLAG") (footprint "")
    )
    (path "/440cf417-27be-44dd-936a-4c0e84b1c722"
      (reference "#FLG04") (unit 1) (value "PWR_FLAG") (footprint "")
    )
    (path "/f77a57d2-876d-4729-a191-7bbc3168f367"
      (reference "#FLG05") (unit 1) (value "PWR_FLAG") (footprint "")
    )
    (path "/8f6e427d-93d1-484b-937e-91974aa6de5c"
      (reference "#PWR01") (unit 1) (value "VCC") (footprint "")
    )
    (path "/4ba53cea-8162-46dc-927c-7ad22589aea8"
      (reference "#PWR02") (unit 1) (value "GND") (footprint "")
    )
    (path "/7689cb57-58ce-4d82-9c52-227210256081"
      (reference "#PWR04") (unit 1) (value "GND") (footprint "")
    )
    (path "/cde97853-8f82-40ad-82b9-26e33721d4c3"
      (reference "#PWR05") (unit 1) (value "GND") (footprint "")
    )
    (path "/d6680ebe-fa04-47b0-96de-6d646ad8501e"
      (reference "#PWR06") (unit 1) (value "GND") (footprint "")
    )
    (path "/34191933-19a2-45a5-ba6a-855d75375715"
      (reference "#PWR07") (unit 1) (value "VEE") (footprint "")
    )
    (path "/8c5e4e27-0c80-44e1-86d8-3567eb955d86"
      (reference "#PWR030") (unit 1) (value "VCC") (footprint "")
    )
    (path "/c483a4ec-f80a-492f-af6a-3656d813ac9b"
      (reference "#PWR031") (unit 1) (value "VEE") (footprint "")
    )
    (path "/2c4740f2-524b-4892-80a5-ae69dee7ef2a"
      (reference "#PWR032") (unit 1) (value "GND") (footprint "")
    )
    (path "/2362a4d0-cdae-4a15-8d3e-a35d3cd59a68"
      (reference "#PWR?") (unit 1) (value "VCC") (footprint "")
    )
    (path "/404a9c86-45d4-4519-9964-f0ce9d5b6cd5"
      (reference "#PWR?") (unit 1) (value "VEE") (footprint "")
    )
    (path "/7227b4ef-06f6-4dce-8cd1-8ac3018e51c6"
      (reference "#PWR?") (unit 1) (value "GND") (footprint "")
    )
    (path "/bb1a040f-8aac-41de-943d-71e59945a978"
      (reference "#PWR?") (unit 1) (value "VEE") (footprint "")
    )
    (path "/5f9a10e6-c9cc-47a8-a2b6-fca05ce3e786"
      (reference "C1") (unit 1) (value "100uF/10V") (footprint "Capacitor_SMD:CP_Elec_5x5.4")
    )
    (path "/7ef0b45f-9439-42aa-90bf-513608f12e5b"
      (reference "C2") (unit 1) (value "390pF") (footprint "Capacitor_SMD:C_0603_1608Metric_Pad1.08x0.95mm_HandSolder")
    )
    (path "/48b8eb07-1048-4ca8-acbc-b179c09dfb02"
      (reference "C3") (unit 1) (value "330uF/35V") (footprint "Capacitor_SMD:CP_Elec_10x10.5")
    )
    (path "/0e61579a-2c3f-4b19-9cdf-a342dadb1dbe"
      (reference "D1") (unit 1) (value "SS16") (footprint "Diode_SMD:D_SMA_Handsoldering")
    )
    (path "/ad541873-9a3b-4837-8b49-0e4e42d4f044"
      (reference "J1") (unit 1) (value "PWR") (footprint "Connector_PinHeader_2.54mm:PinHeader_1x03_P2.54mm_Vertical")
    )
    (path "/47dd71b7-22c1-4214-90d3-9aa801c83840"
      (reference "J2") (unit 1) (value "PWR") (footprint "Connector_PinHeader_2.54mm:PinHeader_1x03_P2.54mm_Vertical")
    )
    (path "/c9fd269d-b008-404c-9401-b3678644193f"
      (reference "L1") (unit 1) (value "47uH") (footprint "Inductor_SMD:L_Fastron_PISR_Handsoldering")
    )
    (path "/40940dcb-2378-44b4-be3d-8be0f86bfaab"
      (reference "Q1") (unit 1) (value "BDP950") (footprint "Package_TO_SOT_SMD:SOT-223")
    )
    (path "/7a233d4c-a137-4439-8a6d-aff185596a7a"
      (reference "R1") (unit 1) (value "0.22") (footprint "Resistor_SMD:R_1206_3216Metric_Pad1.30x1.75mm_HandSolder")
    )
    (path "/3356e5ac-6ff1-4c67-a4f3-b98ca8bd9955"
      (reference "R2") (unit 1) (value "3.3K") (footprint "Resistor_SMD:R_0603_1608Metric_Pad0.98x0.95mm_HandSolder")
    )
    (path "/a3bc9844-6c14-47c8-a992-9c33427e5a76"
      (reference "R3") (unit 1) (value "68K") (footprint "Resistor_SMD:R_0603_1608Metric_Pad0.98x0.95mm_HandSolder")
    )
    (path "/fd3ffbfe-41ab-46e5-816e-344c1a0d4495"
      (reference "R4") (unit 1) (value "22K") (footprint "Resistor_SMD:R_0603_1608Metric_Pad0.98x0.95mm_HandSolder")
    )
    (path "/dab0a0d9-b658-47cc-9107-75ec828eb45f"
      (reference "R5") (unit 1) (value "1K") (footprint "Resistor_SMD:R_1206_3216Metric_Pad1.30x1.75mm_HandSolder")
    )
    (path "/092d037a-d707-4f0d-9666-4cdc755807d2"
      (reference "U1") (unit 1) (value "MC34063AD") (footprint "Package_SO:SOIC-8_3.9x4.9mm_P1.27mm")
    )
  )
)
